1 10 20
100 200 125
201 210 89
900 1000 174
200 400 144
400 800 171
600 1200 182
800 1600 182
1000 2000 182
1200 2400 183
1400 2800 209
1600 3200 217
1800 3600 217
2000 4000 238
2200 4400 238
2400 4800 238
2600 5200 238
2800 5600 238
3000 6000 238
3200 6400 262
3400 6800 262
3600 7200 262
3800 7600 262
4000 8000 262
4200 8400 262
4400 8800 262
4600 9200 262
4800 9600 262
5000 10000 262
5200 10400 262
5400 10800 262
5600 11200 268
5800 11600 268
6000 12000 268
6200 12400 268
6400 12800 268
6600 13200 268
6800 13600 276
7000 14000 276
7200 14400 276
7400 14800 276
7600 15200 276
7800 15600 276
8000 16000 276
8200 16400 276
8400 16800 276
8600 17200 276
8800 17600 276
9000 18000 279
9200 18400 279
9400 18800 279
9600 19200 279
9800 19600 279
10000 20000 279
10200 20400 279
10400 20800 279
10600 21200 279
10800 21600 279
11000 22000 279
11200 22400 279
11400 22800 279
11600 23200 279
11800 23600 282
12000 24000 282
12200 24400 282
12400 24800 282
12600 25200 282
12800 25600 282
13000 26000 282
13200 26400 282
13400 26800 308
13600 27200 308
13800 27600 308
14000 28000 308
14200 28400 308
14400 28800 308
14600 29200 308
14800 29600 308
15000 30000 308
15200 30400 308
15400 30800 308
15600 31200 308
15800 31600 308
16000 32000 308
16200 32400 308
16400 32800 308
16600 33200 308
16800 33600 308
17000 34000 308
17200 34400 311
17400 34800 311
17600 35200 311
17800 35600 311
18000 36000 324
18200 36400 324
18400 36800 324
18600 37200 324
18800 37600 324
19000 38000 324
19200 38400 324
19400 38800 324
19600 39200 324
19800 39600 324
20000 40000 324
300 1200 182
600 1600 182
900 2000 182
1200 2400 183
1500 2800 209
1800 3200 217
2100 3600 217
2400 4000 238
2700 4400 238
3000 4800 238
3300 5200 238
3600 5600 238
3900 6000 236
4200 6400 262
4500 6800 262
4800 7200 262
5100 7600 262
5400 8000 262
5700 8400 262
6000 8800 262
6300 9200 257
6600 9600 260
6900 10000 260
7200 10400 260
7500 10800 260
7800 11200 268
8100 11600 268
8400 12000 268
8700 12400 268
9000 12800 268
9300 13200 268
9600 13600 276
9900 14000 276
10200 14400 276
10500 14800 276
10800 15200 276
11100 15600 276
11400 16000 276
11700 16400 276
12000 16800 276
12300 17200 276
12600 17600 276
12900 18000 279
13200 18400 279
13500 18800 279
13800 19200 279
14100 19600 279
14400 20000 279
14700 20400 279
15000 20800 279
15300 21200 279
15600 21600 279
15900 22000 279
16200 22400 279
16500 22800 279
16800 23200 279
17100 23600 282
17400 24000 282
17700 24400 282
18000 24800 282
18300 25200 282
18600 25600 282
18900 26000 282
19200 26400 282
19500 26800 308
19800 27200 308
20100 27600 308
20400 28000 308
20700 28400 308
21000 28800 308
21300 29200 308
21600 29600 308
21900 30000 308
22200 30400 308
22500 30800 308
22800 31200 308
23100 31600 308
23400 32000 308
23700 32400 308
24000 32800 308
24300 33200 308
24600 33600 308
24900 34000 308
25200 34400 311
25500 34800 311
25800 35200 311
26100 35600 311
26400 36000 324
26700 36400 324
27000 36800 324
27300 37200 324
27600 37600 324
27900 38000 324
28200 38400 324
28500 38800 324
28800 39200 324
29100 39600 324
29400 40000 324
29700 40400 324
30000 40800 324
