1 10 20
100 200 125
201 210 89
900 1000 174
294796 931733 525
697821 638630 442
753665 238760 509
887544 762142 525
518438 642611 509
205438 491378 449
371040 521162 470
903896 515894 525
184636 384967 443
90085 457040 449
5317 595890 470
703450 958156 525
466791 22392 449
723697 665357 504
180503 703604 509
517233 981604 525
637968 723694 504
137177 899293 525
964571 20546 525
176896 479699 449
179623 379027 443
486999 546834 470
415609 899294 525
580401 596298 434
798763 666409 504
569801 803711 509
777328 270405 509
765690 242623 509
807274 999213 525
909943 497417 525
703839 423010 509
482896 338155 449
662053 127665 509
753262 623362 509
664614 927291 525
619548 353980 470
822400 102547 509
904809 234916 525
517265 991950 525
348166 314511 441
175519 427165 449
120112 949068 525
701129 394294 509
706877 504570 509
395011 613874 470
6095 96325 351
553910 995212 525
950569 211997 525
638792 700336 442
352502 299496 441
143904 481034 449
657555 962354 525
98419 68494 351
714226 613830 509
577308 571096 390
931714 261417 525
182 560766 470
725493 210035 509
957448 430584 525
229537 348567 443
559104 745000 509
961221 109751 525
744440 907779 525
838889 891498 445
125540 699719 509
706461 778355 468
183263 872878 525
255568 278538 407
456114 966387 525
407276 30225 443
52009 334912 443
806069 49950 509
410638 530535 470
263410 364942 441
963936 488793 525
230460 519781 470
748397 701013 504
145970 2414 375
123297 493891 449
895892 245316 525
196073 599111 470
538098 888567 525
476283 792789 509
170927 441770 449
763461 87881 509
475732 325070 449
937012 277839 525
377569 346879 423
323278 149207 443
715740 283697 509
153746 453738 449
320170 900200 525
157704 975621 525
904892 277748 525
470818 796526 509
39747 663122 509
913051 575144 525
66047 896034 525
371511 232999 441
341554 641314 509
325086 324002 384
970261 257876 525
118910 855606 525
119663 438623 449
8632 344984 443
239314 671221 509
801423 68410 509
574430 467677 470
45443 988240 525
259948 513543 470
299931 296898 371
693061 208812 509
387448 756763 509
622138 268383 470
505991 471059 426
913751 339051 525
310709 390285 441
112997 939514 525
761576 230090 509
381716 279114 441
577973 128866 470
952402 887998 507
200334 35961 383
358346 755510 509
25979 615305 470
271947 323171 389
427897 474127 444
48803 812652 509
234028 179442 443
84215 249061 443
654454 504936 509
590915 473969 470
411712 213447 449
414602 169522 449
446482 305826 449
963315 532813 525
437167 913173 525
423673 146171 449
952464 290691 525
903095 487539 525
910221 684938 525
814262 846606 525
159873 371101 443
663374 389955 509
553826 254498 470
153740 715246 509
275286 741331 509
193266 683063 509
958477 116904 525
370197 912517 525
424005 329628 449
449236 857419 525
759144 380345 509
518493 220345 470
674748 419476 509
709873 91236 509
106544 32798 354
452821 263479 449
407023 625509 470
170228 468645 449
883604 320857 525
698860 667849 442
578532 401516 470
865708 45374 525
519813 231906 470
961790 941147 414
79332 917424 525
314901 346948 441
813666 830565 450
569906 997214 525
764893 789380 468
603116 868659 525
823737 54701 509
647764 740280 504
682044 813979 504
211432 74421 383
651868 907021 525
744361 739637 393
312329 607386 470
787232 341160 509
355890 257106 441
285871 943437 525
689782 109282 509
293518 500708 449
944075 371882 525
501776 218297 449
163026 614781 470
90320 983439 525
670741 247502 509
727435 349691 509
575895 446849 470
428348 224726 449
868978 680585 525
968076 690815 525
802601 263577 509
33271 155671 375
524156 828485 509
613533 723621 509
939731 903698 507
227301 391819 443
790294 236456 509
612599 951046 525
853790 211276 525
449996 520717 470
460823 686613 509
387231 34463 443
136121 322929 443
774394 1537 509
518018 251959 470
696318 319894 509
517603 238531 470
479114 550422 470
68551 88877 351
275521 4784 443
509609 12576 449
911910 296564 525
251719 520921 470
763136 614471 509
247251 210504 443
649863 705178 504
900474 34006 525
254705 544783 470
872492 27237 525
61517 388856 443
281483 267081 407
711133 308934 509
507243 698518 509
860665 572627 525
302717 133398 443
93987 808378 509
148920 2421 375
622142 909208 525
40321 895164 525
525968 283947 470
108324 173073 383
505555 516988 470
722836 757173 424
65216 592420 470
299270 636500 509
495752 577808 470
904384 204230 525
889748 409191 525
416956 260302 449
497333 718550 509
396514 587637 470
41911 53878 340
107129 660278 509
965889 656013 525
559242 970 470
454838 175314 449
